^C:\USERS\VAGMER\DOCUMENTS\VISUAL STUDIO 2012\PROJECTS\P2P\P2P\DEBUG\MAIN.OBJ
/OUT:"C:\USERS\VAGMER\DOCUMENTS\VISUAL STUDIO 2012\PROJECTS\P2P\DEBUG\P2P.EXE" /INCREMENTAL /NOLOGO /LIBPATH:D:\OpenCV\Build\x86\vc11\lib opencv_core249d.lib opencv_highgui249d.lib opencv_imgproc249d.lib kernel32.lib user32.lib gdi32.lib winspool.lib comdlg32.lib advapi32.lib shell32.lib ole32.lib oleaut32.lib uuid.lib odbc32.lib odbccp32.lib /MANIFEST /MANIFESTUAC:"level='asInvoker' uiAccess='false'" /manifest:embed /DEBUG /PDB:"C:\USERS\VAGMER\DOCUMENTS\VISUAL STUDIO 2012\PROJECTS\P2P\DEBUG\P2P.PDB" /SUBSYSTEM:CONSOLE /TLBID:1 /DYNAMICBASE /NXCOMPAT /IMPLIB:"C:\USERS\VAGMER\DOCUMENTS\VISUAL STUDIO 2012\PROJECTS\P2P\DEBUG\P2P.LIB" /MACHINE:X86 DEBUG\MAIN.OBJ
^C:\USERS\VAGMER\DOCUMENTS\VISUAL STUDIO 2012\PROJECTS\SOBEL\P2P\DEBUG\MAIN.OBJ
/OUT:"C:\USERS\VAGMER\DOCUMENTS\VISUAL STUDIO 2012\PROJECTS\SOBEL\DEBUG\SOBEL.EXE" /INCREMENTAL /NOLOGO /LIBPATH:D:\OpenCV\Build\x86\vc11\lib opencv_core249d.lib opencv_highgui249d.lib opencv_imgproc249d.lib kernel32.lib user32.lib gdi32.lib winspool.lib comdlg32.lib advapi32.lib shell32.lib ole32.lib oleaut32.lib uuid.lib odbc32.lib odbccp32.lib /MANIFEST /MANIFESTUAC:"level='asInvoker' uiAccess='false'" /manifest:embed /DEBUG /PDB:"C:\USERS\VAGMER\DOCUMENTS\VISUAL STUDIO 2012\PROJECTS\SOBEL\DEBUG\SOBEL.PDB" /SUBSYSTEM:CONSOLE /TLBID:1 /DYNAMICBASE /NXCOMPAT /IMPLIB:"C:\USERS\VAGMER\DOCUMENTS\VISUAL STUDIO 2012\PROJECTS\SOBEL\DEBUG\SOBEL.LIB" /MACHINE:X86 DEBUG\MAIN.OBJ
